<?xml version="1.0" encoding="iso-8859-1"?>
<!-- Generator: Adobe Illustrator 16.0.0, SVG Export Plug-In . SVG Version: 6.00 Build 0)  -->
<!DOCTYPE svg PUBLIC "-//W3C//DTD SVG 1.1//EN" "http://www.w3.org/Graphics/SVG/1.1/DTD/svg11.dtd">
<svg version="1.1" id="Capa_1" xmlns="http://www.w3.org/2000/svg" xmlns:xlink="http://www.w3.org/1999/xlink" x="0px" y="0px"
	 width="18px" height="18px" viewBox="0 0 510 510" style="enable-background:new 0 0 510 510;" xml:space="preserve">
	<g id="drive-file" style="fill:#456387;">
		<path d="M102,0C73.95,0,51,22.95,51,51v408c0,28.05,22.95,51,51,51h306c28.05,0,51-22.95,51-51V153L306,0H102z M280.5,178.5V38.25
			L420.75,178.5H280.5z"/>
	</g>
</svg>
