<?xml version="1.0" encoding="iso-8859-1"?>
<!-- Generator: Adobe Illustrator 16.0.0, SVG Export Plug-In . SVG Version: 6.00 Build 0)  -->
<!DOCTYPE svg PUBLIC "-//W3C//DTD SVG 1.1//EN" "http://www.w3.org/Graphics/SVG/1.1/DTD/svg11.dtd">
<svg version="1.1" id="Capa_1" xmlns="http://www.w3.org/2000/svg" xmlns:xlink="http://www.w3.org/1999/xlink" x="0px" y="0px"
	  width="15px" height="15px" viewBox="0 0 534.754 534.754" style="enable-background:new 0 0 534.754 534.754;"
	 xml:space="preserve">
	<g style="fill:#b6b6b6;">
		<path d="M482.734,0H52.02C23.336,0,0,23.335,0,52.02v430.712c0,28.686,23.336,52.021,52.02,52.021h430.714
			c28.684,0,52.02-23.336,52.02-52.021V52.02C534.754,23.335,511.418,0,482.734,0z M491.914,482.74c0,5.061-4.119,9.18-9.18,9.18
			H52.02c-5.061,0-9.18-4.119-9.18-9.18V111.635h449.074V482.74z"/>
		<path d="M204.28,212.982h206.501c13.549,0,24.578-11.028,24.578-24.578c0-13.55-11.023-24.578-24.578-24.578H204.28
			c-13.55,0-24.578,11.022-24.578,24.578C179.702,201.96,190.73,212.982,204.28,212.982z"/>
		<path d="M204.28,292.676h206.501c13.549,0,24.578-11.027,24.578-24.576c0-13.55-11.023-24.579-24.578-24.579H204.28
			c-13.55,0-24.578,11.022-24.578,24.579C179.702,281.648,190.73,292.676,204.28,292.676z"/>
		<path d="M204.28,372.377h206.501c13.549,0,24.578-11.027,24.578-24.578c0-13.549-11.023-24.578-24.578-24.578H204.28
			c-13.55,0-24.578,11.029-24.578,24.578C179.702,361.35,190.73,372.377,204.28,372.377z"/>
		<path d="M204.28,456.607h206.501c13.549,0,24.578-11.029,24.578-24.578c0-13.551-11.023-24.578-24.578-24.578H204.28
			c-13.55,0-24.578,11.027-24.578,24.578C179.702,445.578,190.73,456.607,204.28,456.607z"/>
		<path d="M123.973,212.982c13.55,0,24.578-11.028,24.578-24.578c0-13.55-11.022-24.578-24.578-24.578s-24.578,11.022-24.578,24.578
			C99.395,201.96,110.423,212.982,123.973,212.982z"/>
		<path d="M123.973,292.676c13.55,0,24.578-11.027,24.578-24.576c0-13.55-11.022-24.579-24.578-24.579S99.395,254.543,99.395,268.1
			C99.395,281.648,110.423,292.676,123.973,292.676z"/>
		<path d="M123.973,372.377c13.55,0,24.578-11.027,24.578-24.578c0-13.549-11.022-24.578-24.578-24.578
			s-24.578,11.029-24.578,24.578C99.395,361.35,110.423,372.377,123.973,372.377z"/>
		<path d="M123.973,456.607c13.55,0,24.578-11.029,24.578-24.578c0-13.551-11.022-24.578-24.578-24.578
			s-24.578,11.027-24.578,24.578C99.395,445.578,110.423,456.607,123.973,456.607z"/>
	</g>
</svg>
