<?xml version="1.0" encoding="iso-8859-1"?>
<!-- Generator: Adobe Illustrator 16.0.0, SVG Export Plug-In . SVG Version: 6.00 Build 0)  -->
<!DOCTYPE svg PUBLIC "-//W3C//DTD SVG 1.1//EN" "http://www.w3.org/Graphics/SVG/1.1/DTD/svg11.dtd">
<svg version="1.1" id="Capa_1" xmlns="http://www.w3.org/2000/svg" xmlns:xlink="http://www.w3.org/1999/xlink" x="0px" y="0px"
	 width="33px" height="33px" viewBox="0 0 612 612" style="enable-background:new 0 0 612 612;" xml:space="preserve">
	<g id="plus" fill="#FFF">
			<polygon points="612,286.893 325.116,286.893 325.116,0.296 286.903,0.296 286.903,286.893 0,286.893 0,325.107 286.903,325.107 
				286.903,611.704 325.116,611.704 325.116,325.107 612,325.107 			"/>
	</g>
</svg>
